<?xml version="1.0" encoding="UTF-8" standalone="no"?>
<svg width="15px" height="9px" viewBox="0 0 15 9" version="1.1" xmlns="http://www.w3.org/2000/svg" xmlns:xlink="http://www.w3.org/1999/xlink">
    <!-- Generator: Sketch 48.2 (47327) - http://www.bohemiancoding.com/sketch -->
    <title>Combined Shape</title>
    <desc>Created with Sketch.</desc>
    <defs></defs>
    <g transform="translate(-317.000000, -930.000000)">
        <path d="M324.5,936.616117 L330.5,930.616117 L331.383883,931.5 L325.383883,937.5 L324.5,938.383883 L317.616117,931.5 L318.5,930.616117 L324.5,936.616117 Z"></path>
    </g>
</svg>