<?xml version="1.0" encoding="UTF-8" standalone="no"?>
<svg width="25px" height="25px" viewBox="0 0 25 25" version="1.1" xmlns="http://www.w3.org/2000/svg" xmlns:xlink="http://www.w3.org/1999/xlink">
    <!-- Generator: Sketch 48.2 (47327) - http://www.bohemiancoding.com/sketch -->
    <title>Group</title>
    <desc>Created with Sketch.</desc>
    <defs></defs>
    <g transform="translate(-707.000000, -465.000000)">
        <g id="Group" transform="translate(707.000000, 465.000000)">
            <path d="M0.292893219,1.70710678 C-0.0976310729,1.31658249 -0.0976310729,0.683417511 0.292893219,0.292893219 C0.683417511,-0.0976310729 1.31658249,-0.0976310729 1.70710678,0.292893219 L24.7071068,23.2928932 C25.0976311,23.6834175 25.0976311,24.3165825 24.7071068,24.7071068 C24.3165825,25.0976311 23.6834175,25.0976311 23.2928932,24.7071068 L0.292893219,1.70710678 Z" id="Line"></path>
            <path d="M23.2928932,0.292893219 C23.6834175,-0.0976310729 24.3165825,-0.0976310729 24.7071068,0.292893219 C25.0976311,0.683417511 25.0976311,1.31658249 24.7071068,1.70710678 L1.70710678,24.7071068 C1.31658249,25.0976311 0.683417511,25.0976311 0.292893219,24.7071068 C-0.0976310729,24.3165825 -0.0976310729,23.6834175 0.292893219,23.2928932 L23.2928932,0.292893219 Z" id="Line"></path>
        </g>
    </g>
</svg>