<?xml version="1.0" encoding="UTF-8" standalone="no"?>
<svg width="12px" height="16px" viewBox="0 0 12 16" version="1.1" xmlns="http://www.w3.org/2000/svg" xmlns:xlink="http://www.w3.org/1999/xlink">
    <!-- Generator: Sketch 48.2 (47327) - http://www.bohemiancoding.com/sketch -->
    <title>User</title>
    <desc>Created with Sketch.</desc>
    <defs></defs>
    <g transform="translate(-531.000000, -334.000000)">
        <g id="Icon-/-Outline-/-User" transform="translate(525.000000, 330.000000)">
            <g id="User">
                <path d="M11.9913,4.0426 C14.0035603,4.0426 15.6369,5.67597555 15.6369,7.6883 C15.6369,9.70055652 14.0035282,11.334 11.9913,11.334 C9.9789897,11.334 8.3456,9.70057445 8.3456,7.6883 C8.3456,5.67595763 9.97895763,4.0426 11.9913,4.0426 Z M11.9913,5.0426 C10.5312424,5.0426 9.3456,6.22824237 9.3456,7.6883 C9.3456,9.14829461 10.5312794,10.334 11.9913,10.334 C13.4512337,10.334 14.6369,9.1482816 14.6369,7.6883 C14.6369,6.22825539 13.4512706,5.0426 11.9913,5.0426 Z" ></path>
                <path d="M6.7848,17.5518 C6.7848,14.6780576 9.11755763,12.3453 11.9913,12.3453 C14.8650424,12.3453 17.1978,14.6780576 17.1978,17.5518 C17.1978,20.8160667 6.7848,20.8160667 6.7848,17.5518 Z M7.7848,17.5518 C7.7848,19.4827333 16.1978,19.4827333 16.1978,17.5518 C16.1978,15.2303424 14.3127576,13.3453 11.9913,13.3453 C9.66984237,13.3453 7.7848,15.2303424 7.7848,17.5518 Z"></path>
            </g>
        </g>
    </g>
</svg>